<?xml version="1.0" encoding="UTF-8"?>
<svg width="117px" height="27px" viewBox="0 0 117 27" version="1.1" xmlns="http://www.w3.org/2000/svg" xmlns:xlink="http://www.w3.org/1999/xlink">
    <!-- Generator: Sketch Beta 41.2 (35396) - http://www.bohemiancoding.com/sketch -->
    <title>MARK 1 Logo</title>
    <desc>Created with Sketch Beta.</desc>
    <defs></defs>
    <g id="Page-1" stroke="none" stroke-width="1" fill="none" fill-rule="evenodd">
        <g id="Thought-Leadership" transform="translate(-40.000000, -40.000000)">
            <g id="MARK-1-Logo" transform="translate(40.000000, 40.000000)">
                <path d="M61.7316009,17.8223093 L65.8807049,17.8223093 L70.344965,26.9755111 L76.9480257,26.9755111 L71.7293523,16.8647081 C74.5931471,15.8236306 77.1235257,13.2419757 77.1235257,9.0790233 C77.1235257,4.12474341 73.555702,0.00318974185 67.5400084,0.00318974185 L55.9647858,0.00318974185 L55.9647858,26.9755111 L61.7316009,26.9755111 L61.7316009,17.8223093 Z M61.7316009,5.16548152 L67.1660142,5.16548152 C69.6974072,5.16548152 71.3567107,6.78953519 71.3567107,9.0790233 C71.3567107,11.3688507 69.6974072,12.9929044 67.1660142,12.9929044 L61.7316009,12.9929044 L61.7316009,5.16548152 Z M5.76681503,12.3683258 L11.4501069,23.6091118 L15.3503324,23.6091118 L20.9930462,12.3683258 L20.9930462,26.9756468 L26.7598613,26.9756468 L26.7598613,0.0029861413 L21.0752168,0.0029861413 L13.4002197,16.0314389 L5.68329191,0.0029861413 L0,0.0029861413 L0,26.9756468 L5.76681503,26.9756468 L5.76681503,12.3683258 Z M43.8797341,0 L38.8040983,0 L29.0251301,26.9757147 L34.9982168,26.9757147 L36.1347399,23.6346298 L46.6305867,23.6346298 L47.740396,26.9757147 L53.6958988,26.9757147 L43.8797341,0 Z M37.7524509,18.7638261 L41.4869827,7.98080197 L45.0960607,18.7638261 L37.7524509,18.7638261 Z M85.2116749,20.7367493 L89.0283772,16.1564157 L95.1181257,26.9757486 L101.772585,26.9757486 L92.8450795,11.7851121 L101.812149,3.39334239e-05 L94.8006026,3.39334239e-05 L85.2116749,12.9093264 L85.2116749,0.00308794158 L79.4448598,0.00308794158 L79.4448598,26.9757486 L85.2116749,26.9757486 L85.2116749,20.7367493 Z" id="MARK" fill="#FFFFFF"></path>
                <polygon id="1" fill="#A7DD31" points="116.947215 0.003121875 116.947215 26.9757825 111.1804 26.9757825 111.1804 8.14850095 107.362345 8.14850095 111.26257 0.003121875"></polygon>
            </g>
        </g>
    </g>
</svg>