<?xml version="1.0" encoding="UTF-8"?>
<svg width="24px" height="24px" viewBox="0 0 24 24" version="1.1" xmlns="http://www.w3.org/2000/svg" xmlns:xlink="http://www.w3.org/1999/xlink">
    <!-- Generator: Sketch Beta 42 (36679) - http://www.bohemiancoding.com/sketch -->
    <title>Pinterest Icon</title>
    <desc>Created with Sketch Beta.</desc>
    <defs></defs>
    <g id="Page-1" stroke="none" stroke-width="1" fill="none" fill-rule="evenodd">
        <g id="Home" transform="translate(-323.000000, -7078.000000)" fill="#505050">
            <g id="Group-2" transform="translate(110.000000, 7078.000000)">
                <path d="M225.000087,0 C218.373034,0 213,5.372509 213,11.9999125 C213,16.9135676 215.954736,21.1347435 220.182821,22.9907139 C220.149059,22.1527764 220.176786,21.1469015 220.391694,20.2352289 C220.622432,19.2611047 221.935755,13.6965173 221.935755,13.6965173 C221.935755,13.6965173 221.552386,12.9303905 221.552386,11.7978629 C221.552386,10.019651 222.583101,8.69154628 223.866685,8.69154628 C224.958103,8.69154628 225.485444,9.51137805 225.485444,10.4930245 C225.485444,11.5903028 224.785617,13.2315407 224.425689,14.7516364 C224.125064,16.0245492 225.063939,17.062787 226.319708,17.062787 C228.593335,17.062787 230.124539,14.1426885 230.124539,10.6828287 C230.124539,8.05285945 228.35315,6.08431856 225.131376,6.08431856 C221.491333,6.08431856 219.223654,8.79886876 219.223654,11.831013 C219.223654,12.8764232 219.531889,13.6137732 220.014709,14.1845853 C220.236789,14.4469 220.267577,14.5523857 220.187195,14.8534484 C220.129641,15.0742161 219.997478,15.6058428 219.942723,15.8164643 C219.862866,16.120326 219.616645,16.2290479 219.34191,16.1167398 C217.665335,15.4323075 216.884426,13.5962797 216.884426,11.5323119 C216.884426,8.12362057 219.759392,4.03618234 225.460778,4.03618234 C230.042145,4.03618234 233.057495,7.35145852 233.057495,10.9102439 C233.057495,15.6175635 230.440471,19.1343645 226.58281,19.1343645 C225.287243,19.1343645 224.068647,18.4340131 223.651166,17.6386722 C223.651166,17.6386722 222.954488,20.4034287 222.80693,20.9373296 C222.552575,21.8625596 222.054536,22.7871773 221.599181,23.5079085 C222.678528,23.8265522 223.818491,24 225.000087,24 C231.626616,24 236.999388,18.6274035 236.999388,11.9999125 C236.999388,5.372509 231.626616,0 225.000087,0" id="Pinterest-Icon"></path>
            </g>
        </g>
    </g>
</svg>