<?xml version="1.0" encoding="UTF-8"?>
<svg width="18px" height="24px" viewBox="0 0 18 24" version="1.1" xmlns="http://www.w3.org/2000/svg" xmlns:xlink="http://www.w3.org/1999/xlink">
    <!-- Generator: Sketch Beta 42 (36780) - http://www.bohemiancoding.com/sketch -->
    <title>Page 1</title>
    <desc>Created with Sketch Beta.</desc>
    <defs></defs>
    <g id="Page-1" stroke="none" stroke-width="1" fill="none" fill-rule="evenodd">
        <g id="Home" transform="translate(-201.000000, -5439.000000)">
            <g id="Group-17" transform="translate(140.000000, 5439.000000)">
                <g id="Page-1" transform="translate(70.000000, 12.000000) scale(-1, 1) translate(-70.000000, -12.000000) translate(61.000000, 0.000000)">
                    <polyline id="Stroke-1" stroke="#A7DD31" stroke-width="2.80615385" points="4.04840122 19.8825023 13.92645 12.0057689 4.04840122 4.12903544"></polyline>
                    <path d="M4.04839024,8.22105393 C6.28426829,8.22105393 8.09678049,6.3889923 8.09678049,4.12903544 C8.09678049,1.86900462 6.28426829,0.0369429892 4.04839024,0.0369429892 C1.8125122,0.0369429892 0,1.86900462 0,4.12903544 C0,6.3889923 1.8125122,8.22105393 4.04839024,8.22105393" id="Fill-3" fill="#A7DD31"></path>
                    <path d="M8.09678049,19.8825023 C8.09678049,17.6224715 6.28426829,15.7904099 4.04839024,15.7904099 C1.8125122,15.7904099 0,17.6224715 0,19.8825023 C0,22.1424592 1.8125122,23.9745208 4.04839024,23.9745208 C6.28426829,23.9745208 8.09678049,22.1424592 8.09678049,19.8825023 Z" id="Fill-6" fill="#A7DD31"></path>
                    <path d="M13.926439,16.0977874 C16.1623171,16.0977874 17.9748293,14.2657257 17.9748293,12.0057689 C17.9748293,9.74573806 16.1623171,7.91367643 13.926439,7.91367643 C11.690561,7.91367643 9.87804878,9.74573806 9.87804878,12.0057689 C9.87804878,14.2657257 11.690561,16.0977874 13.926439,16.0977874" id="Fill-8" fill="#A7DD31"></path>
                </g>
            </g>
        </g>
    </g>
</svg>